<?xml version="1.0" standalone="no"?>
<!DOCTYPE svg PUBLIC "-//W3C//DTD SVG 20010904//EN"
 "http://www.w3.org/TR/2001/REC-SVG-20010904/DTD/svg10.dtd">
<svg version="1.0" xmlns="http://www.w3.org/2000/svg"
 width="512.000000pt" height="512.000000pt" viewBox="0 0 512.000000 512.000000"
 preserveAspectRatio="xMidYMid meet">
<metadata>
Created by potrace 1.11, written by Peter Selinger 2001-2013
</metadata>
<g transform="translate(0.000000,512.000000) scale(0.100000,-0.100000)"
fill="#000000" stroke="none">
<path d="M0 2560 l0 -2560 2560 0 2560 0 0 2560 0 2560 -2560 0 -2560 0 0
-2560z m2367 2258 c5 -7 111 -240 236 -518 125 -278 273 -608 330 -735 l104
-230 -91 -6 c-50 -3 -95 -2 -99 1 -5 4 -145 340 -312 746 l-303 739 56 6 c32
3 60 6 63 7 4 1 11 -4 16 -10z m477 -18 c264 -38 482 -102 691 -205 310 -152
478 -366 525 -668 l11 -68 -40 -45 c-73 -84 -96 -168 -104 -389 l-3 -90 -399
0 -400 0 -105 335 c-59 184 -167 518 -242 743 l-136 407 31 0 c18 0 95 -9 171
-20z m-471 -736 c196 -399 357 -729 357 -735 0 -5 -42 -9 -93 -9 l-93 0 -346
718 c-190 394 -344 718 -343 720 2 3 131 29 151 31 6 1 171 -326 367 -725z
m-578 339 c466 -799 626 -1075 622 -1079 -2 -2 -172 -6 -378 -9 -206 -3 -519
-7 -696 -10 l-323 -5 0 82 c-1 108 -31 281 -59 336 -12 24 -41 64 -63 88 l-40
44 17 77 c22 101 46 160 100 253 100 170 228 300 388 392 70 41 238 117 258
118 4 0 82 -129 174 -287z m2270 -1101 c-15 -15 -489 -42 -695 -40 -224 3
-225 3 -228 25 l-3 23 398 2 398 3 6 145 c3 80 9 161 14 180 11 51 52 129 83
157 l27 25 3 -258 c1 -141 0 -259 -3 -262z m-3155 461 c48 -59 84 -211 94
-393 l4 -85 393 3 c217 1 539 5 715 9 314 6 322 5 332 -14 11 -19 7 -20 -101
-26 -143 -9 -1359 -9 -1419 -1 l-45 6 -7 122 c-17 346 -18 416 -8 416 6 0 25
-17 42 -37z m1850 -483 c10 -19 8 -20 -90 -20 -55 0 -100 2 -100 4 0 2 -3 11
-6 20 -5 14 6 16 90 16 85 0 96 -2 106 -20z m300 0 c11 -20 9 -21 -92 -18 -89
3 -103 5 -106 21 -3 15 6 17 92 17 86 0 96 -2 106 -20z m-1841 -550 c-26 -21
-92 -203 -135 -370 -18 -74 -40 -155 -48 -180 l-13 -45 65 -95 c90 -130 172
-238 261 -345 81 -97 305 -325 320 -325 5 0 35 33 66 72 78 98 405 423 483
481 94 69 158 91 267 90 73 0 103 -5 159 -27 140 -54 466 -287 637 -457 61
-60 115 -109 120 -109 17 0 213 197 323 325 152 176 177 211 230 319 l45 93
-23 74 c-62 199 -174 490 -195 505 -12 9 8 41 119 185 73 96 139 181 147 189
13 13 14 -27 11 -325 l-3 -340 81 -145 c249 -444 292 -531 300 -612 9 -85 -11
-200 -44 -262 -33 -62 -219 -251 -324 -330 -71 -53 -87 -76 -55 -76 25 0 89
-53 103 -85 12 -31 12 -37 -9 -75 -54 -102 -244 -138 -374 -71 -47 24 -79 54
-88 80 -4 14 -49 41 -138 84 -167 80 -343 192 -474 300 -188 156 -299 206
-474 215 -116 5 -177 -5 -280 -44 -85 -32 -140 -67 -296 -190 -126 -99 -270
-203 -468 -335 -116 -78 -268 -149 -316 -149 -48 1 -117 34 -164 80 -25 24
-63 46 -99 59 -119 41 -232 126 -316 238 -43 56 -49 72 -56 130 -15 144 33
424 110 636 41 114 115 290 183 437 l48 105 -6 120 c-4 66 -10 223 -14 348
l-6 228 179 -193 c172 -184 179 -194 161 -208z m1322 311 c24 -16 54 -38 65
-48 12 -10 120 -187 239 -393 120 -206 222 -379 227 -385 9 -9 -25 62 -220
468 -86 177 -85 186 4 102 27 -25 89 -73 137 -108 l88 -62 145 -289 c79 -159
144 -288 144 -285 0 3 -49 124 -109 269 -60 146 -108 266 -107 267 1 1 19 -2
41 -7 22 -5 91 -12 154 -16 l113 -7 68 -68 c72 -72 169 -210 209 -297 l25 -53
-22 -43 c-50 -105 -315 -396 -359 -396 -6 0 -93 59 -194 131 -264 189 -413
287 -504 333 -77 39 -84 40 -180 41 -169 0 -188 -9 -443 -214 -120 -97 -264
-211 -319 -253 l-101 -78 -61 50 c-73 61 -181 183 -272 306 l-68 92 40 98 c46
115 84 174 166 264 l60 64 119 1 c116 0 121 1 181 34 41 22 112 81 205 170
363 348 422 382 529 312z m150 -1615 c97 -21 190 -73 313 -175 177 -147 409
-290 573 -354 41 -16 43 -19 68 -100 14 -46 25 -95 25 -110 0 -34 -33 -56 -97
-63 -40 -5 -58 -2 -99 19 -76 39 -179 115 -294 218 -302 270 -463 359 -645
359 -194 0 -259 -35 -655 -358 -171 -140 -328 -261 -348 -269 -142 -62 -480
52 -587 196 -32 44 -32 48 6 56 26 6 36 2 62 -23 38 -37 151 -92 188 -92 15 0
45 7 68 15 65 23 266 139 366 211 50 36 140 99 200 140 61 40 151 108 200 149
173 145 289 193 475 194 63 0 145 -6 181 -13z"/>
<path d="M945 1743 c-59 -18 -62 -20 -48 -34 13 -13 135 21 130 36 -5 15 -27
15 -82 -2z"/>
<path d="M4055 1729 c-4 -6 -5 -12 -4 -13 12 -9 123 -34 130 -30 20 12 6 22
-49 38 -69 19 -69 19 -77 5z"/>
<path d="M992 1692 c-29 -8 -51 -20 -49 -26 6 -18 32 -18 92 -1 46 14 54 19
44 31 -14 17 -18 16 -87 -4z"/>
<path d="M4011 1676 c-15 -18 -10 -20 61 -39 47 -12 59 -13 68 -2 13 16 8 20
-48 35 -24 6 -49 13 -56 16 -7 3 -18 -2 -25 -10z"/>
<path d="M1052 1633 c-39 -9 -62 -19 -59 -26 5 -16 74 -12 116 5 27 11 31 16
20 24 -10 8 -31 7 -77 -3z"/>
<path d="M3950 1615 c-9 -11 -1 -17 41 -29 66 -20 83 -20 99 -1 10 12 10 15
-1 15 -8 1 -40 7 -71 14 -48 12 -59 12 -68 1z"/>
<path d="M1100 1573 c-66 -19 -66 -19 -51 -37 10 -12 20 -12 69 0 87 22 86 22
72 39 -15 18 -20 18 -90 -2z"/>
<path d="M3900 1555 c-16 -20 -17 -19 57 -37 44 -11 65 -12 72 -5 18 18 13 24
-36 36 -27 7 -55 14 -64 17 -9 2 -22 -3 -29 -11z"/>
<path d="M1153 1513 c-53 -15 -63 -25 -42 -39 16 -9 130 27 126 40 -5 17 -27
16 -84 -1z"/>
<path d="M3847 1503 c-14 -14 -5 -20 52 -38 56 -17 91 -16 91 3 0 4 -29 16
-64 25 -74 20 -71 19 -79 10z"/>
<path d="M1206 1456 c-55 -17 -66 -23 -55 -32 11 -9 29 -7 77 7 57 18 74 31
55 42 -5 2 -39 -5 -77 -17z"/>
<path d="M3795 1440 c-3 -5 23 -18 57 -28 48 -15 66 -17 77 -8 11 9 3 14 -40
28 -63 20 -86 22 -94 8z"/>
<path d="M1253 1403 c-31 -9 -53 -21 -53 -29 0 -18 3 -18 75 5 32 10 61 24 63
30 5 15 -21 13 -85 -6z"/>
<path d="M3745 1390 c-7 -11 -5 -12 74 -35 36 -10 58 -12 65 -5 10 10 8 12
-69 35 -60 18 -62 18 -70 5z"/>
<path d="M1306 1347 c-57 -18 -66 -24 -54 -34 11 -10 28 -8 82 8 56 17 65 23
55 35 -6 8 -12 14 -13 13 0 0 -32 -10 -70 -22z"/>
<path d="M3695 1339 c-11 -16 4 -26 66 -44 51 -14 63 -14 70 -3 9 14 3 17 -80
42 -30 9 -53 11 -56 5z"/>
<path d="M1368 1287 c-61 -18 -89 -37 -55 -37 20 0 121 31 130 40 19 18 -12
17 -75 -3z"/>
<path d="M3650 1290 c0 -14 133 -51 144 -40 6 6 4 11 -5 14 -8 2 -36 11 -63
20 -57 18 -76 20 -76 6z"/>
<path d="M3820 959 c-72 -29 -94 -101 -42 -137 69 -48 159 -55 238 -18 28 13
54 31 57 41 19 48 -6 92 -66 114 -35 14 -153 13 -187 0z"/>
</g>
</svg>
